{
  "type": "service_account",
  "project_id": "canvas-mobile-244712",
  "private_key_id": "6c1dfbfa05f126c3e675de4fb7b5a258807c151b",
  "private_key": "-----BEGIN PRIVATE KEY-----\nMIIEvQIBADANBgkqhkiG9w0BAQEFAASCBKcwggSjAgEAAoIBAQCScisZ1mH/Tqqb\nv8wXQEghdt8kKA/Wove0q22COVreqpWCn9DcAAxHuGGvBWWsLvIl4RDmLxSS7vF6\na3Z092VtBDNLMifge87boYBzDMlzPjXeneKaHuyFRdbUBMtYWFXjhq6i6D+X5lqa\nX8eUkex5/oBg3s+Vzxdc1yl+a0zBp/sXnNQH6R/t4dibbosCjtkPCjJ4kVn5wdLE\ncZrCQRqC2mm4Aa28U8nhhs3hDTZsyiOy9HWT1lgRFMvjVFPntOX4uaWK12UYwmZg\nykjyY4yK5Ohrd+p6oUrNKCdzX4Je8VJKRib2ExnJtNJE50IW4hYJCcT+cFQ6vAFJ\nHJl330jbAgMBAAECggEAGET9aZnCwdnaolclzpCjo5AcqNRO06ZMYM+sJVG2AoLI\npk4wAdWsM1KWNbgyQlfBX4+uCkexJCyfLkeS6Q167JcunP6h5yz9eh6IuAhddlDQ\nAqWtwRbw4aFSWe61eF2jVkKivHK630SYrU7EN5X7V7hatDMYud4JJCSwRrgnj0w0\nO513n5X45svElJI1jFFBroqbKFvkuVrSM/4XMpBWp119FETIYJT2WydYd98XRrt+\n0fWKNb/hoEJ7gmpE/m+uMX9Y5BAJA3MDSv4llbEDH7Qey7PSG0mhWGnpYmWK+a5L\n1yqTVCI0vjwB1QOgAxcAsZit3jYtlZnST4fUBSFpoQKBgQDFJ/FOdASdsrLlqAlm\n8a2e7k06dndGwp6QE1P2TTcl1xscWtgV7ZvKmVAllqetqsPqs33EjXg79HVRMzaD\nagTc9lJQkU37zkoAYR4oUfsdgUdLkeOUIthnwEYcZYVBbQQR1geXoC8X1Vr67gxy\nGEtWZCQvgFDPq5Ikw95H/gur0QKBgQC+J6I0rqedS7DKWq+xGY7xNI3hwidX5Okl\nWdO4egv6SaSoL+L74SqfUtPJqVNhoooWRIpec0j7UmKH+/K9yGn9/2vHEfsvRbVb\npq7fILZKrMPzQ4nIO73vbICzk5H0N7BzcyyESasifr1axK7OO8EQGZX/rkDN5Hq7\n8AnWUhOQ6wKBgQCQjXekkPXtdd8q+ShjnSEyXQCss71CWWGOu00dUoHzsaKECKtU\ncJGAWyZjWPF6KLFavN2ipiMYumTl80mt0qbcJ5I01kS6MgcZ/hrxbyJSAL54Tu/w\nZhgLAfOl0F2Cmd6ZATcx2dWNgPYi8zSW1u8t2WCan1cg3GfbouywFjkScQKBgDzp\nMzNO8xAWy9W2AOto9XncTMqRR8sG34wAXyqLpcSRzHW3iS0H7oBEpuTFIZl32GXT\npMMmiK1AsaE/mn0icplTNTH6V4zH9pUaKo/8yYfYGZiV/M+wG2JTTlK3pZwmLpZ8\nwTjK5E/Ta1JlCF21lF1U5NCW/9k0JACJno0Rk4TrAoGAbIV/KRlbftnKiOw7GPE5\nA0uu/3DDBElgB8SqefVq/qh+FZqB3kgQtFm72XKWNuWridwzoCQUUSsB42xi+BVB\nifj7lmLuILEtyI68MsdLqE7not9y2geQge5BVXzFRIYlYzuRcRW1X1tIgzW/im1G\n1AtXxXPJb8m+TMkll0pP19Y=\n-----END PRIVATE KEY-----\n",
  "client_email": "firebase-adminsdk-zetqi@canvas-mobile-244712.iam.gserviceaccount.com",
  "client_id": "102395297671156628437",
  "auth_uri": "https://accounts.google.com/o/oauth2/auth",
  "token_uri": "https://oauth2.googleapis.com/token",
  "auth_provider_x509_cert_url": "https://www.googleapis.com/oauth2/v1/certs",
  "client_x509_cert_url": "https://www.googleapis.com/robot/v1/metadata/x509/firebase-adminsdk-zetqi%40canvas-mobile-244712.iam.gserviceaccount.com"
}
