{
    "port": 4000,
    "bouncer_client" : {
      "client_id": "CANVAS_MOBILE",
      "client_secret":"e69127af-f096-4e54-b130-a11f007c1002",
      "endpoint": "http://bouncer.alpha2.livspace.com/"
    },
    "launchpad_client" : {
      "endpoint": "http://launchpad-backend.alpha2.livspace.com/v1/"
    },
    "cookie" : {
      "name": "ls"
    },
    "chatConfig" : {
      "host": "chat.livspace.com",
      "chatModuleHost": "http://canvas.livspace.com", 
      "port":8000
    }
  }
